[{
  "title": "001 Warm Flame",
  "css": "background-image: linear-gradient(45deg, #ff9a9e 0%, #fad0c4 99%, #fad0c4 100%);",
  "desc": "#ff9a9e→#fad0c4"
}, {
  "title": "002 Night Fade",
  "css": "background-image: linear-gradient(to top, #a18cd1 0%, #fbc2eb 100%);",
  "desc": "#a18cd1→#fbc2eb"
}, {
  "title": "003 Spring Warmth",
  "css": "background-image: linear-gradient(to top, #fad0c4 0%, #ffd1ff 100%);",
  "desc": "#fad0c4→#ffd1ff"
}, {
  "title": "004 Juicy Peach",
  "css": "background-image: linear-gradient(to right, #ffecd2 0%, #fcb69f 100%);",
  "desc": "#ffecd2→#fcb69f"
}, {
  "title": "005 Young Passion",
  "css": "background-image: linear-gradient(to right, #ff8177 0%, #ff867a 0%, #ff8c7f 21%, #f99185 52%, #cf556c 78%, #b12a5b 100%);",
  "desc": ""
}, {
  "title": "006 Lady Lips",
  "css": "background-image: linear-gradient(to top, #ff9a9e 0%, #fecfef 99%, #fecfef 100%);",
  "desc": "#ff9a9e→#fecfef"
}, {
  "title": "007 Sunny Morning",
  "css": "background-image: linear-gradient(120deg, #f6d365 0%, #fda085 100%);",
  "desc": "#f6d365→#fda085"
}, {
  "title": "008 Rainy Ashville",
  "css": "background-image: linear-gradient(to top, #fbc2eb 0%, #a6c1ee 100%);",
  "desc": "#fbc2eb→#a6c1ee"
}, {
  "title": "009 Frozen Dreams",
  "css": "background-image: linear-gradient(to top, #fdcbf1 0%, #fdcbf1 1%, #e6dee9 100%);",
  "desc": "#fdcbf1→#e6dee9"
}, {
  "title": "010 Winter Neva",
  "css": "background-image: linear-gradient(120deg, #a1c4fd 0%, #c2e9fb 100%);",
  "desc": "#a1c4fd→#c2e9fb"
}, {
  "title": "011 Dusty Grass",
  "css": "background-image: linear-gradient(120deg, #d4fc79 0%, #96e6a1 100%);",
  "desc": "#d4fc79→#96e6a1"
}, {
  "title": "012 Tempting Azure",
  "css": "background-image: linear-gradient(120deg, #84fab0 0%, #8fd3f4 100%);",
  "desc": "#84fab0→#8fd3f4"
}, {
  "title": "013 Heavy Rain",
  "css": "background-image: linear-gradient(to top, #cfd9df 0%, #e2ebf0 100%);",
  "desc": "#cfd9df→#e2ebf0"
}, {
  "title": "014 Amy Crisp",
  "css": "background-image: linear-gradient(120deg, #a6c0fe 0%, #f68084 100%);",
  "desc": "#a6c0fe→#f68084"
}, {
  "title": "015 Mean Fruit",
  "css": "background-image: linear-gradient(120deg, #fccb90 0%, #d57eeb 100%);",
  "desc": "#fccb90→#d57eeb"
}, {
  "title": "016 Deep Blue",
  "css": "background-image: linear-gradient(120deg, #e0c3fc 0%, #8ec5fc 100%);",
  "desc": "#e0c3fc→#8ec5fc"
}, {
  "title": "017 Ripe Malinka",
  "css": "background-image: linear-gradient(120deg, #f093fb 0%, #f5576c 100%);",
  "desc": "#f093fb→#f5576c"
}, {
  "title": "018 Cloudy Knoxville",
  "css": "background-image: linear-gradient(120deg, #fdfbfb 0%, #ebedee 100%);",
  "desc": "#fdfbfb→#ebedee"
}, {
  "title": "019 Malibu Beach",
  "css": "background-image: linear-gradient(to right, #4facfe 0%, #00f2fe 100%);",
  "desc": "#4facfe→#00f2fe"
}, {
  "title": "020 New Life",
  "css": "background-image: linear-gradient(to right, #43e97b 0%, #38f9d7 100%);",
  "desc": "#43e97b→#38f9d7"
}, {
  "title": "021 True Sunset",
  "css": "background-image: linear-gradient(to right, #fa709a 0%, #fee140 100%);",
  "desc": "#fa709a→#fee140"
}, {
  "title": "022 Morpheus Den",
  "css": "background-image: linear-gradient(to top, #30cfd0 0%, #330867 100%);",
  "desc": "#30cfd0→#330867"
}, {
  "title": "023 Rare Wind",
  "css": "background-image: linear-gradient(to top, #a8edea 0%, #fed6e3 100%);",
  "desc": "#a8edea→#fed6e3"
}, {
  "title": "024 Near Moon",
  "css": "background-image: linear-gradient(to top, #5ee7df 0%, #b490ca 100%);",
  "desc": "#5ee7df→#b490ca"
}, {
  "title": "025 Wild Apple",
  "css": "background-image: linear-gradient(to top, #d299c2 0%, #fef9d7 100%);",
  "desc": "#d299c2→#fef9d7"
}, {
  "title": "026 Saint Petersburg",
  "css": "background-image: linear-gradient(135deg, #f5f7fa 0%, #c3cfe2 100%);",
  "desc": "#f5f7fa→#c3cfe2"
}, {
  "title": "027 Arielle's Smile",
  "css": "background-image: radial-gradient(circle 248px at center, #16d9e3 0%, #30c7ec 47%, #46aef7 100%);",
  "desc": ""
}, {
  "title": "028 Plum Plate",
  "css": "background-image: linear-gradient(135deg, #667eea 0%, #764ba2 100%);",
  "desc": "#667eea→#764ba2"
}, {
  "title": "029 Everlasting Sky",
  "css": "background-image: linear-gradient(135deg, #fdfcfb 0%, #e2d1c3 100%);",
  "desc": "#fdfcfb→#e2d1c3"
}, {
  "title": "030 Happy Fisher",
  "css": "background-image: linear-gradient(120deg, #89f7fe 0%, #66a6ff 100%);",
  "desc": "#89f7fe→#66a6ff"
}, {
  "title": "031 Blessing",
  "css": "background-image: linear-gradient(to top, #fddb92 0%, #d1fdff 100%);",
  "desc": "#fddb92→#d1fdff"
}, {
  "title": "032 Sharpeye Eagle",
  "css": "background-image: linear-gradient(to top, #9890e3 0%, #b1f4cf 100%);",
  "desc": "#9890e3→#b1f4cf"
}, {
  "title": "033 Ladoga Bottom",
  "css": "background-image: linear-gradient(to top, #ebc0fd 0%, #d9ded8 100%);",
  "desc": "#ebc0fd→#d9ded8"
}, {
  "title": "034 Lemon Gate",
  "css": "background-image: linear-gradient(to top, #96fbc4 0%, #f9f586 100%);",
  "desc": "#96fbc4→#f9f586"
}, {
  "title": "035 Itmeo Branding",
  "css": "background-image: linear-gradient(180deg, #2af598 0%, #009efd 100%);",
  "desc": "#2af598→#009efd"
}, {
  "title": "036 Zeus Miracle",
  "css": "background-image: linear-gradient(to top, #cd9cf2 0%, #f6f3ff 100%);",
  "desc": "#cd9cf2→#f6f3ff"
}, {
  "title": "037 Old Hat",
  "css": "background-image: linear-gradient(to right, #e4afcb 0%, #b8cbb8 0%, #b8cbb8 0%, #e2c58b 30%, #c2ce9c 64%, #7edbdc 100%);",
  "desc": ""
}, {
  "title": "038 Star Wine",
  "css": "background-image: linear-gradient(to right, #b8cbb8 0%, #b8cbb8 0%, #b465da 0%, #cf6cc9 33%, #ee609c 66%, #ee609c 100%);",
  "desc": ""
}, {
  "title": "039 Deep Blue",
  "css": "background-image: linear-gradient(to right, #6a11cb 0%, #2575fc 100%);",
  "desc": "#6a11cb→#2575fc"
}, {
  "title": "040 Coup de Grace",
  "css": "background-color: #DCD9D4; \n background-image: linear-gradient(to bottom, rgba(255,255,255,0.50) 0%, rgba(0,0,0,0.50) 100%), radial-gradient(at 50% 0%, rgba(255,255,255,0.10) 0%, rgba(0,0,0,0.50) 50%); \n background-blend-mode: soft-light,screen;",
  "desc": ""
}, {
  "title": "041 Happy Acid",
  "css": "background-image: linear-gradient(to top, #37ecba 0%, #72afd3 100%);",
  "desc": "#37ecba→#72afd3"
}, {
  "title": "042 Awesome Pine",
  "css": "background-image: linear-gradient(to top, #ebbba7 0%, #cfc7f8 100%);",
  "desc": "#ebbba7→#cfc7f8"
}, {
  "title": "043 New York",
  "css": "background-image: linear-gradient(to top, #fff1eb 0%, #ace0f9 100%);",
  "desc": "#fff1eb→#ace0f9"
}, {
  "title": "044 Shy Rainbow",
  "css": "background-image: linear-gradient(to right, #eea2a2 0%, #bbc1bf 19%, #57c6e1 42%, #b49fda 79%, #7ac5d8 100%);",
  "desc": ""
}, {
  "title": "045 Loon Crest",
  "css": "background: linear-gradient(to bottom, rgba(255,255,255,0.15) 0%, rgba(0,0,0,0.15) 100%), radial-gradient(at top center, rgba(255,255,255,0.40) 0%, rgba(0,0,0,0.40) 120%) #989898; \n background-blend-mode: multiply,multiply;",
  "desc": ""
}, {
  "title": "046 Mixed Hopes",
  "css": "background-image: linear-gradient(to top, #c471f5 0%, #fa71cd 100%);",
  "desc": "#c471f5→#fa71cd"
}, {
  "title": "047 Fly High",
  "css": "background-image: linear-gradient(to top, #48c6ef 0%, #6f86d6 100%);",
  "desc": "#48c6ef→#6f86d6"
}, {
  "title": "048 Strong Bliss",
  "css": "background-image: linear-gradient(to right, #f78ca0 0%, #f9748f 19%, #fd868c 60%, #fe9a8b 100%);",
  "desc": ""
}, {
  "title": "049 Fresh Milk",
  "css": "background-image: linear-gradient(to top, #feada6 0%, #f5efef 100%);",
  "desc": "#feada6→#f5efef"
}, {
  "title": "050 Snow Again",
  "css": "background-image: linear-gradient(to top, #e6e9f0 0%, #eef1f5 100%);",
  "desc": "#e6e9f0→#eef1f5"
}, {
  "title": "051 February Ink",
  "css": "background-image: linear-gradient(to top, #accbee 0%, #e7f0fd 100%);",
  "desc": "#accbee→#e7f0fd"
}, {
  "title": "052 Kind Steel",
  "css": "background-image: linear-gradient(-20deg, #e9defa 0%, #fbfcdb 100%);",
  "desc": "#e9defa→#fbfcdb"
}, {
  "title": "053 Soft Grass",
  "css": "background-image: linear-gradient(to top, #c1dfc4 0%, #deecdd 100%);",
  "desc": "#c1dfc4→#deecdd"
}, {
  "title": "054 Grown Early",
  "css": "background-image: linear-gradient(to top, #0ba360 0%, #3cba92 100%);",
  "desc": "#0ba360→#3cba92"
}, {
  "title": "055 Sharp Blues",
  "css": "background-image: linear-gradient(to top, #00c6fb 0%, #005bea 100%);",
  "desc": "#00c6fb→#005bea"
}, {
  "title": "056 Shady Water",
  "css": "background-image: linear-gradient(to right, #74ebd5 0%, #9face6 100%);",
  "desc": "#74ebd5→#9face6"
}, {
  "title": "057 Dirty Beauty",
  "css": "background-image: linear-gradient(to top, #6a85b6 0%, #bac8e0 100%);",
  "desc": "#6a85b6→#bac8e0"
}, {
  "title": "058 Great Whale",
  "css": "background-image: linear-gradient(to top, #a3bded 0%, #6991c7 100%);",
  "desc": "#a3bded→#6991c7"
}, {
  "title": "059 Teen Notebook",
  "css": "background-image: linear-gradient(to top, #9795f0 0%, #fbc8d4 100%);",
  "desc": "#9795f0→#fbc8d4"
}, {
  "title": "060 Polite Rumors",
  "css": "background-image: linear-gradient(to top, #a7a6cb 0%, #8989ba 52%, #8989ba 100%);",
  "desc": "#a7a6cb→#8989ba"
}, {
  "title": "061 Sweet Period",
  "css": "background-image: linear-gradient(to top, #3f51b1 0%, #5a55ae 13%, #7b5fac 25%, #8f6aae 38%, #a86aa4 50%, #cc6b8e 62%, #f18271 75%, #f3a469 87%, #f7c978 100%);",
  "desc": ""
}, {
  "title": "062 Wide Matrix",
  "css": "background-image: linear-gradient(to top, #fcc5e4 0%, #fda34b 15%, #ff7882 35%, #c8699e 52%, #7046aa 71%, #0c1db8 87%, #020f75 100%);",
  "desc": ""
}, {
  "title": "063 Soft Cherish",
  "css": "background-image: linear-gradient(to top, #dbdcd7 0%, #dddcd7 24%, #e2c9cc 30%, #e7627d 46%, #b8235a 59%, #801357 71%, #3d1635 84%, #1c1a27 100%);",
  "desc": ""
}, {
  "title": "064 Red Salvation",
  "css": "background-image: linear-gradient(to top, #f43b47 0%, #453a94 100%);",
  "desc": "#f43b47→#453a94"
}, {
  "title": "065 Burning Spring",
  "css": "background-image: linear-gradient(to top, #4fb576 0%, #44c489 30%, #28a9ae 46%, #28a2b7 59%, #4c7788 71%, #6c4f63 86%, #432c39 100%);",
  "desc": ""
}, {
  "title": "066 Night Party",
  "css": "background-image: linear-gradient(to top, #0250c5 0%, #d43f8d 100%);",
  "desc": "#0250c5→#d43f8d"
}, {
  "title": "067 Sky Glider",
  "css": "background-image: linear-gradient(to top, #88d3ce 0%, #6e45e2 100%);",
  "desc": "#88d3ce→#6e45e2"
}, {
  "title": "068 Heaven Peach",
  "css": "background-image: linear-gradient(to top, #d9afd9 0%, #97d9e1 100%);",
  "desc": "#d9afd9→#97d9e1"
}, {
  "title": "069 Purple Division",
  "css": "background-image: linear-gradient(to top, #7028e4 0%, #e5b2ca 100%);",
  "desc": "#7028e4→#e5b2ca"
}, {
  "title": "070 Aqua Splash",
  "css": "background-image: linear-gradient(15deg, #13547a 0%, #80d0c7 100%);",
  "desc": "#13547a→#80d0c7"
}, {
  "title": "071 Above Clouds",
  "css": "background-image: linear-gradient(to left, #BDBBBE 0%, #9D9EA3 100%), radial-gradient(88% 271%, rgba(255, 255, 255, 0.25) 0%, rgba(254, 254, 254, 0.25) 1%, rgba(0, 0, 0, 0.25) 100%), radial-gradient(50% 100%, rgba(255, 255, 255, 0.30) 0%, rgba(0, 0, 0, 0.30) 100%);\n background-blend-mode: normal, lighten, soft-light;",
  "desc": ""
}, {
  "title": "072 Spiky Naga",
  "css": "background-image: linear-gradient(to top, #505285 0%, #585e92 12%, #65689f 25%, #7474b0 37%, #7e7ebb 50%, #8389c7 62%, #9795d4 75%, #a2a1dc 87%, #b5aee4 100%);",
  "desc": ""
}, {
  "title": "073 Love Kiss",
  "css": "background-image: linear-gradient(to top, #ff0844 0%, #ffb199 100%);",
  "desc": "#ff0844→#ffb199"
}, {
  "title": "074 Sharp Glass",
  "css": "background: #C9CCD3;\n background-image: linear-gradient(-180deg, rgba(255,255,255,0.50) 0%, rgba(0,0,0,0.50) 100%);\n background-blend-mode: lighten;",
  "desc": ""
}, {
  "title": "075 Clean Mirror",
  "css": "background-image: linear-gradient(45deg, #93a5cf 0%, #e4efe9 100%);",
  "desc": "#93a5cf→#e4efe9"
}, {
  "title": "076 Premium Dark",
  "css": "background-image: linear-gradient(to right, #434343 0%, black 100%);",
  "desc": "#434343→#000000"
}, {
  "title": "077 Cold Evening",
  "css": "background-image: linear-gradient(to top, #0c3483 0%, #a2b6df 100%, #6b8cce 100%, #a2b6df 100%);",
  "desc": ""
}, {
  "title": "078 Cochiti Lake",
  "css": "background-image: linear-gradient(45deg, #93a5cf 0%, #e4efe9 100%);",
  "desc": "#93a5cf→#e4efe9"
}, {
  "title": "079 Summer Games",
  "css": "background-image: linear-gradient(to right, #92fe9d 0%, #00c9ff 100%);",
  "desc": "#92fe9d→#00c9ff"
}, {
  "title": "080 Passionate Bed",
  "css": "background-image: linear-gradient(to right, #ff758c 0%, #ff7eb3 100%);",
  "desc": "#ff758c→#ff7eb3"
}, {
  "title": "081 Mountain Rock",
  "css": "background-image: linear-gradient(to right, #868f96 0%, #596164 100%);",
  "desc": "#868f96→#596164"
}, {
  "title": "082 Desert Hump",
  "css": "background-image: linear-gradient(to top, #c79081 0%, #dfa579 100%);",
  "desc": "#c79081→#dfa579"
}, {
  "title": "083 Jungle Day",
  "css": "background-image: linear-gradient(45deg, #8baaaa 0%, #ae8b9c 100%);",
  "desc": "#8baaaa→#ae8b9c"
}, {
  "title": "084 Phoenix Start",
  "css": "background-image: linear-gradient(to right, #f83600 0%, #f9d423 100%);",
  "desc": "#f83600→#f9d423"
}, {
  "title": "085 October Silence",
  "css": "background-image: linear-gradient(-20deg, #b721ff 0%, #21d4fd 100%);",
  "desc": "#b721ff→#21d4fd"
}, {
  "title": "086 Faraway River",
  "css": "background-image: linear-gradient(-20deg, #6e45e2 0%, #88d3ce 100%);",
  "desc": "#6e45e2→#88d3ce"
}, {
  "title": "087 Alchemist Lab",
  "css": "background-image: linear-gradient(-20deg, #d558c8 0%, #24d292 100%);",
  "desc": "#d558c8→#24d292"
}, {
  "title": "088 Over Sun",
  "css": "background-image: linear-gradient(60deg, #abecd6 0%, #fbed96 100%);",
  "desc": "#abecd6→#fbed96"
}, {
  "title": "089 Premium White",
  "css": "background-image: linear-gradient(to top, #d5d4d0 0%, #d5d4d0 1%, #eeeeec 31%, #efeeec 75%, #e9e9e7 100%);",
  "desc": ""
}, {
  "title": "090 Mars Party",
  "css": "background-image: linear-gradient(to top, #5f72bd 0%, #9b23ea 100%);",
  "desc": "#5f72bd→#9b23ea"
}, {
  "title": "091 Eternal Constance",
  "css": "background-image: linear-gradient(to top, #09203f 0%, #537895 100%);",
  "desc": "#09203f→#537895"
}, {
  "title": "092 Japan Blush",
  "css": "background-image: linear-gradient(-20deg, #ddd6f3 0%, #faaca8 100%, #faaca8 100%);",
  "desc": "#ddd6f3→#faaca8"
}, {
  "title": "093 Smiling Rain",
  "css": "background-image: linear-gradient(-20deg, #dcb0ed 0%, #99c99c 100%);",
  "desc": "#dcb0ed→#99c99c"
}, {
  "title": "094 Cloudy Apple",
  "css": "background-image: linear-gradient(to top, #f3e7e9 0%, #e3eeff 99%, #e3eeff 100%);",
  "desc": "#f3e7e9→#e3eeff"
}, {
  "title": "095 Big Mango",
  "css": "background-image: linear-gradient(to top, #c71d6f 0%, #d09693 100%);",
  "desc": "#c71d6f→#d09693"
}, {
  "title": "096 Healthy Water",
  "css": "background-image: linear-gradient(60deg, #96deda 0%, #50c9c3 100%);",
  "desc": "#96deda→#50c9c3"
}, {
  "title": "097 Amour Amour",
  "css": "background-image: linear-gradient(to top, #f77062 0%, #fe5196 100%);",
  "desc": "#f77062→#fe5196"
}, {
  "title": "098 Risky Concrete",
  "css": "background-image: linear-gradient(to top, #c4c5c7 0%, #dcdddf 52%, #ebebeb 100%);",
  "desc": ""
}, {
  "title": "099 Strong Stick",
  "css": "background-image: linear-gradient(to right, #a8caba 0%, #5d4157 100%);",
  "desc": "#a8caba→#5d4157"
}, {
  "title": "100 Vicious Stance",
  "css": "background-image: linear-gradient(60deg, #29323c 0%, #485563 100%);",
  "desc": "#29323c→#485563"
}, {
  "title": "101 Palo Alto",
  "css": "background-image: linear-gradient(-60deg, #16a085 0%, #f4d03f 100%);",
  "desc": "#16a085→#f4d03f"
}, {
  "title": "102 Happy Memories",
  "css": "background-image: linear-gradient(-60deg, #ff5858 0%, #f09819 100%);",
  "desc": "#ff5858→#f09819"
}, {
  "title": "103 Midnight Bloom",
  "css": "background-image: linear-gradient(-20deg, #2b5876 0%, #4e4376 100%);",
  "desc": "#2b5876→#4e4376"
}, {
  "title": "104 Crystalline",
  "css": "background-image: linear-gradient(-20deg, #00cdac 0%, #8ddad5 100%);",
  "desc": "#00cdac→#8ddad5"
}, {
  "title": "105 Raccoon Back",
  "css": "background: linear-gradient(-180deg, #BCC5CE 0%, #929EAD 98%), radial-gradient(at top left, rgba(255,255,255,0.30) 0%, rgba(0,0,0,0.30) 100%);\n background-blend-mode: screen;",
  "desc": ""
}, {
  "title": "106 Party Bliss",
  "css": "background-image: linear-gradient(to top, #4481eb 0%, #04befe 100%);",
  "desc": "#4481eb→#04befe"
}, {
  "title": "107 Confident Cloud",
  "css": "background-image: linear-gradient(to top, #dad4ec 0%, #dad4ec 1%, #f3e7e9 100%);",
  "desc": "#dad4ec→#f3e7e9"
}, {
  "title": "108 Le Cocktail",
  "css": "background-image: linear-gradient(45deg, #874da2 0%, #c43a30 100%);",
  "desc": "#874da2→#c43a30"
}, {
  "title": "109 River City",
  "css": "background-image: linear-gradient(to top, #4481eb 0%, #04befe 100%);",
  "desc": "#4481eb→#04befe"
}, {
  "title": "110 Frozen Berry",
  "css": "background-image: linear-gradient(to top, #e8198b 0%, #c7eafd 100%);",
  "desc": "#e8198b→#c7eafd"
}, {
  "title": "111 Elegance",
  "css": "background-image: radial-gradient(73% 147%, #EADFDF 59%, #ECE2DF 100%), radial-gradient(91% 146%, rgba(255,255,255,0.50) 47%, rgba(0,0,0,0.50) 100%);\n background-blend-mode: screen;",
  "desc": ""
}, {
  "title": "112 Child Care",
  "css": "background-image: linear-gradient(-20deg, #f794a4 0%, #fdd6bd 100%);",
  "desc": "#f794a4→#fdd6bd"
}, {
  "title": "113 Flying Lemon",
  "css": "background-image: linear-gradient(60deg, #64b3f4 0%, #c2e59c 100%);",
  "desc": "#64b3f4→#c2e59c"
}, {
  "title": "114 New Retrowave",
  "css": "background-image: linear-gradient(to top, #3b41c5 0%, #a981bb 49%, #ffc8a9 100%);",
  "desc": ""
}, {
  "title": "115 Hidden Jaguar",
  "css": "background-image: linear-gradient(to top, #0fd850 0%, #f9f047 100%);",
  "desc": "#0fd850→#f9f047"
}, {
  "title": "116 Above The Sky",
  "css": "background-image: linear-gradient(to top, lightgrey 0%, lightgrey 1%, #e0e0e0 26%, #efefef 48%, #d9d9d9 75%, #bcbcbc 100%);",
  "desc": ""
}, {
  "title": "117 Nega",
  "css": "background-image: linear-gradient(45deg, #ee9ca7 0%, #ffdde1 100%);",
  "desc": "#ee9ca7→#ffdde1"
}, {
  "title": "118 Dense Water",
  "css": "background-image: linear-gradient(to right, #3ab5b0 0%, #3d99be 31%, #56317a 100%);",
  "desc": ""
}, {
  "title": "119 Chemic Aqua",
  "css": "background-color: #CDDCDC;\n background-image: radial-gradient(at 50% 100%, rgba(255,255,255,0.50) 0%, rgba(0,0,0,0.50) 100%), linear-gradient(to bottom, rgba(255,255,255,0.25) 0%, rgba(0,0,0,0.25) 100%);\n background-blend-mode: screen, overlay;",
  "desc": ""
}, {
  "title": "120 Seashore",
  "css": "background-image: linear-gradient(to top, #209cff 0%, #68e0cf 100%);",
  "desc": "#209cff→#68e0cf"
}, {
  "title": "121 Marble Wall",
  "css": "background-image: linear-gradient(to top, #bdc2e8 0%, #bdc2e8 1%, #e6dee9 100%);",
  "desc": "#bdc2e8→#e6dee9"
}, {
  "title": "122 Cheerful Caramel",
  "css": "background-image: linear-gradient(to top, #e6b980 0%, #eacda3 100%);",
  "desc": "#e6b980→#eacda3"
}, {
  "title": "123 Night Sky",
  "css": "background-image: linear-gradient(to top, #1e3c72 0%, #1e3c72 1%, #2a5298 100%);",
  "desc": "#1e3c72→#2a5298"
}, {
  "title": "124 Magic Lake",
  "css": "background-image: linear-gradient(to top, #d5dee7 0%, #ffafbd 0%, #c9ffbf 100%);",
  "desc": ""
}, {
  "title": "125 Young Grass",
  "css": "background-image: linear-gradient(to top, #9be15d 0%, #00e3ae 100%);",
  "desc": "#9be15d→#00e3ae"
}, {
  "title": "126 Colorful Peach",
  "css": "background-image: linear-gradient(to right, #ed6ea0 0%, #ec8c69 100%);",
  "desc": "#ed6ea0→#ec8c69"
}, {
  "title": "127 Gentle Care",
  "css": "background-image: linear-gradient(to right, #ffc3a0 0%, #ffafbd 100%);",
  "desc": "#ffc3a0→#ffafbd"
}, {
  "title": "128 Plum Bath",
  "css": "background-image: linear-gradient(to top, #cc208e 0%, #6713d2 100%);",
  "desc": "#cc208e→#6713d2"
}, {
  "title": "129 Happy Unicorn",
  "css": "background-image: linear-gradient(to top, #b3ffab 0%, #12fff7 100%);",
  "desc": "#b3ffab→#12fff7"
}, {
  "title": "130 Full Metal",
  "css": "background: linear-gradient(to bottom, #D5DEE7 0%, #E8EBF2 50%, #E2E7ED 100%), linear-gradient(to bottom, rgba(0,0,0,0.02) 50%, rgba(255,255,255,0.02) 61%, rgba(0,0,0,0.02) 73%), linear-gradient(33deg, rgba(255,255,255,0.20) 0%, rgba(0,0,0,0.20) 100%);\n background-blend-mode: normal,color-burn;",
  "desc": ""
}, {
  "title": "131 African Field",
  "css": "background-image: linear-gradient(to top, #65bd60 0%, #5ac1a8 25%, #3ec6ed 50%, #b7ddb7 75%, #fef381 100%);",
  "desc": ""
}, {
  "title": "132 Solid Stone",
  "css": "background-image: linear-gradient(to right, #243949 0%, #517fa4 100%);",
  "desc": "#243949→#517fa4"
}, {
  "title": "133 Orange Juice",
  "css": "background-image: linear-gradient(-20deg, #fc6076 0%, #ff9a44 100%);",
  "desc": "#fc6076→#ff9a44"
}, {
  "title": "134 Glass Water",
  "css": "background-image: linear-gradient(to top, #dfe9f3 0%, white 100%);",
  "desc": "#dfe9f3→#ffffff"
}, {
  "title": "135 Slick Carbon",
  "css": "background: linear-gradient(to bottom, #323232 0%, #3F3F3F 40%, #1C1C1C 150%), linear-gradient(to top, rgba(255,255,255,0.40) 0%, rgba(0,0,0,0.25) 200%);\n background-blend-mode: multiply;",
  "desc": ""
}, {
  "title": "136 North Miracle",
  "css": "background-image: linear-gradient(to right, #00dbde 0%, #fc00ff 100%);",
  "desc": "#00dbde→#fc00ff"
}, {
  "title": "137 Fruit Blend",
  "css": "background-image: linear-gradient(to right, #f9d423 0%, #ff4e50 100%);",
  "desc": "#f9d423→#ff4e50"
}, {
  "title": "138 Millennium Pine",
  "css": "background-image: linear-gradient(to top, #50cc7f 0%, #f5d100 100%);",
  "desc": "#50cc7f→#f5d100"
}, {
  "title": "139 High Flight",
  "css": "background-image: linear-gradient(to right, #0acffe 0%, #495aff 100%);",
  "desc": "#0acffe→#495aff"
}, {
  "title": "140 Mole Hall",
  "css": "background-image: linear-gradient(-20deg, #616161 0%, #9bc5c3 100%);",
  "desc": "#616161→#9bc5c3"
}, {
  "title": "141 Earl Gray",
  "css": "background-color: #E4E4E1;\n background-image: radial-gradient(at top center, rgba(255,255,255,0.03) 0%, rgba(0,0,0,0.03) 100%), linear-gradient(to top, rgba(255,255,255,0.1) 0%, rgba(143,152,157,0.60) 100%);\n \tbackground-blend-mode: normal, multiply;",
  "desc": ""
}, {
  "title": "142 Space Shift",
  "css": "background-image: linear-gradient(60deg, #3d3393 0%, #2b76b9 37%, #2cacd1 65%, #35eb93 100%);",
  "desc": ""
}, {
  "title": "143 Forest Inei",
  "css": "background-image: linear-gradient(to top, #df89b5 0%, #bfd9fe 100%);",
  "desc": "#df89b5→#bfd9fe"
}, {
  "title": "144 Royal Garden",
  "css": "background-image: linear-gradient(to right, #ed6ea0 0%, #ec8c69 100%);",
  "desc": "#ed6ea0→#ec8c69"
}, {
  "title": "145 Rich Metal",
  "css": "background-image: linear-gradient(to right, #d7d2cc 0%, #304352 100%);",
  "desc": "#d7d2cc→#304352"
}, {
  "title": "146 Juicy Cake",
  "css": "background-image: linear-gradient(to top, #e14fad 0%, #f9d423 100%);",
  "desc": "#e14fad→#f9d423"
}, {
  "title": "147 Smart Indigo",
  "css": "background-image: linear-gradient(to top, #b224ef 0%, #7579ff 100%);",
  "desc": "#b224ef→#7579ff"
}, {
  "title": "148 Sand Strike",
  "css": "background-image: linear-gradient(to right, #c1c161 0%, #c1c161 0%, #d4d4b1 100%);",
  "desc": "#c1c161→#d4d4b1"
}, {
  "title": "149 Norse Beauty",
  "css": "background-image: linear-gradient(to right, #ec77ab 0%, #7873f5 100%);",
  "desc": "#ec77ab→#7873f5"
}, {
  "title": "150 Aqua Guidance",
  "css": "background-image: linear-gradient(to top, #007adf 0%, #00ecbc 100%);",
  "desc": "#007adf→#00ecbc"
}, {
  "title": "151 Sun Veggie",
  "css": "background-image: linear-gradient(-225deg, #20E2D7 0%, #F9FEA5 100%);",
  "desc": "#20E2D7→#F9FEA5"
}, {
  "title": "152 Sea Lord",
  "css": "background-image: linear-gradient(-225deg, #2CD8D5 0%, #C5C1FF 56%, #FFBAC3 100%);",
  "desc": ""
}, {
  "title": "153 Black Sea",
  "css": "background-image: linear-gradient(-225deg, #2CD8D5 0%, #6B8DD6 48%, #8E37D7 100%);",
  "desc": ""
}, {
  "title": "154 Grass Shampoo",
  "css": "background-image: linear-gradient(-225deg, #DFFFCD 0%, #90F9C4 48%, #39F3BB 100%);",
  "desc": ""
}, {
  "title": "155 Landing Aircraft",
  "css": "background-image: linear-gradient(-225deg, #5D9FFF 0%, #B8DCFF 48%, #6BBBFF 100%);",
  "desc": ""
}, {
  "title": "156 Witch Dance",
  "css": "background-image: linear-gradient(-225deg, #A8BFFF 0%, #884D80 100%);",
  "desc": "#A8BFFF→#884D80"
}, {
  "title": "157 Sleepless Night",
  "css": "background-image: linear-gradient(-225deg, #5271C4 0%, #B19FFF 48%, #ECA1FE 100%);",
  "desc": ""
}, {
  "title": "158 Angel Care",
  "css": "background-image: linear-gradient(-225deg, #FFE29F 0%, #FFA99F 48%, #FF719A 100%);",
  "desc": ""
}, {
  "title": "159 Crystal River",
  "css": "background-image: linear-gradient(-225deg, #22E1FF 0%, #1D8FE1 48%, #625EB1 100%);",
  "desc": ""
}, {
  "title": "160 Soft Lipstick",
  "css": "background-image: linear-gradient(-225deg, #B6CEE8 0%, #F578DC 100%);",
  "desc": "#B6CEE8→#F578DC"
}, {
  "title": "161 Salt Mountain",
  "css": "background-image: linear-gradient(-225deg, #FFFEFF 0%, #D7FFFE 100%);",
  "desc": "#FFFEFF→#D7FFFE"
}, {
  "title": "162 Perfect White",
  "css": "background-image: linear-gradient(-225deg, #E3FDF5 0%, #FFE6FA 100%);",
  "desc": "#E3FDF5→#FFE6FA"
}, {
  "title": "163 Fresh Oasis",
  "css": "background-image: linear-gradient(-225deg, #7DE2FC 0%, #B9B6E5 100%);",
  "desc": "#7DE2FC→#B9B6E5"
}, {
  "title": "164 Strict November",
  "css": "background-image: linear-gradient(-225deg, #CBBACC 0%, #2580B3 100%);",
  "desc": "#CBBACC→#2580B3"
}, {
  "title": "165 Morning Salad",
  "css": "background-image: linear-gradient(-225deg, #B7F8DB 0%, #50A7C2 100%);",
  "desc": "#B7F8DB→#50A7C2"
}, {
  "title": "166 Deep Relief",
  "css": "background-image: linear-gradient(-225deg, #7085B6 0%, #87A7D9 50%, #DEF3F8 100%);",
  "desc": ""
}, {
  "title": "167 Sea Strike",
  "css": "background-image: linear-gradient(-225deg, #77FFD2 0%, #6297DB 48%, #1EECFF 100%);",
  "desc": ""
}, {
  "title": "168 Night Call",
  "css": "background-image: linear-gradient(-225deg, #AC32E4 0%, #7918F2 48%, #4801FF 100%);",
  "desc": ""
}, {
  "title": "169 Supreme Sky",
  "css": "background-image: linear-gradient(-225deg, #D4FFEC 0%, #57F2CC 48%, #4596FB 100%);",
  "desc": ""
}, {
  "title": "170 Light Blue",
  "css": "background-image: linear-gradient(-225deg, #9EFBD3 0%, #57E9F2 48%, #45D4FB 100%);",
  "desc": ""
}, {
  "title": "171 Mind Crawl",
  "css": "background-image: linear-gradient(-225deg, #473B7B 0%, #3584A7 51%, #30D2BE 100%);",
  "desc": ""
}, {
  "title": "172 Lily Meadow",
  "css": "background-image: linear-gradient(-225deg, #65379B 0%, #886AEA 53%, #6457C6 100%);",
  "desc": "#007adf→#00ecbc"
}, {
  "title": "173 Sugar Lollipop",
  "css": "background-image: linear-gradient(-225deg, #A445B2 0%, #D41872 52%, #FF0066 100%);",
  "desc": ""
}, {
  "title": "174 Sweet Dessert",
  "css": "background-image: linear-gradient(-225deg, #7742B2 0%, #F180FF 52%, #FD8BD9 100%);",
  "desc": ""
}, {
  "title": "175 Magic Ray",
  "css": "background-image: linear-gradient(-225deg, #FF3CAC 0%, #562B7C 52%, #2B86C5 100%);",
  "desc": ""
}, {
  "title": "176 Teen Party",
  "css": "background-image: linear-gradient(-225deg, #FF057C 0%, #8D0B93 50%, #321575 100%);",
  "desc": ""
}, {
  "title": "177 Frozen Heat",
  "css": "background-image: linear-gradient(-225deg, #FF057C 0%, #7C64D5 48%, #4CC3FF 100%);",
  "desc": ""
}, {
  "title": "178 Gagarin View",
  "css": "background-image: linear-gradient(-225deg, #69EACB 0%, #EACCF8 48%, #6654F1 100%);",
  "desc": ""
}, {
  "title": "179 Fabled Sunset",
  "css": "background-image: linear-gradient(-225deg, #231557 0%, #44107A 29%, #FF1361 67%, #FFF800 100%);",
  "desc": ""
}, {
  "title": "180 Perfect Blue",
  "css": "background-image: linear-gradient(-225deg, #3D4E81 0%, #5753C9 48%, #6E7FF3 100%);",
  "desc": ""
},
{
  "desc": "Evening Night",
  "css": "background: linear-gradient(to right, rgb(0, 90, 167), rgb(255, 253, 228));",
  "title": "Evening Night"
}, {
  "desc": "Vanusa",
  "css": "background: linear-gradient(to right, rgb(218, 68, 83), rgb(137, 33, 107));",
  "title": "Vanusa"
}, {
  "desc": "Shifty",
  "css": "background: linear-gradient(to right, rgb(99, 99, 99), rgb(162, 171, 88));",
  "title": "Shifty"
}, {
  "desc": "eXpresso",
  "css": "background: linear-gradient(to right, rgb(173, 83, 137), rgb(60, 16, 83));",
  "title": "eXpresso"
}, {
  "desc": "Slight Ocean View",
  "css": "background: linear-gradient(to right, rgb(168, 192, 255), rgb(63, 43, 150));",
  "title": "Slight Ocean View"
}, {
  "desc": "Pure Lust",
  "css": "background: linear-gradient(to right, rgb(51, 51, 51), rgb(221, 24, 24));",
  "title": "Pure Lust"
}, {
  "desc": "Moon Purple",
  "css": "background: linear-gradient(to right, rgb(78, 84, 200), rgb(143, 148, 251));",
  "title": "Moon Purple"
}, {
  "desc": "Red Sunset",
  "css": "background: linear-gradient(to right, rgb(53, 92, 125), rgb(108, 91, 123), rgb(192, 108, 132));",
  "title": "Red Sunset"
}, {
  "desc": "Shifter",
  "css": "background: linear-gradient(to right, rgb(188, 78, 156), rgb(248, 7, 89));",
  "title": "Shifter"
}, {
  "desc": "Wedding Day Blues",
  "css": "background: linear-gradient(to right, rgb(64, 224, 208), rgb(255, 140, 0), rgb(255, 0, 128));",
  "title": "Wedding Day Blues"
}, {
  "desc": "Sand to Blue",
  "css": "background: linear-gradient(to right, rgb(62, 81, 81), rgb(222, 203, 164));",
  "title": "Sand to Blue"
}, {
  "desc": "Quepal",
  "css": "background: linear-gradient(to right, rgb(17, 153, 142), rgb(56, 239, 125));",
  "title": "Quepal"
}, {
  "desc": "Pun Yeta",
  "css": "background: linear-gradient(to right, rgb(16, 141, 199), rgb(239, 142, 56));",
  "title": "Pun Yeta"
}, {
  "desc": "Sublime Light",
  "css": "background: linear-gradient(to right, rgb(252, 92, 125), rgb(106, 130, 251));",
  "title": "Sublime Light"
}, {
  "desc": "Sublime Vivid",
  "css": "background: linear-gradient(to right, rgb(252, 70, 107), rgb(63, 94, 251));",
  "title": "Sublime Vivid"
}, {
  "desc": "Bighead",
  "css": "background: linear-gradient(to right, rgb(201, 75, 75), rgb(75, 19, 79));",
  "title": "Bighead"
}, {
  "desc": "Taran Tado",
  "css": "background: linear-gradient(to right, rgb(35, 7, 77), rgb(204, 83, 51));",
  "title": "Taran Tado"
}, {
  "desc": "Relaxing red",
  "css": "background: linear-gradient(to right, rgb(255, 251, 213), rgb(178, 10, 44));",
  "title": "Relaxing red"
}, {
  "desc": "Lawrencium",
  "css": "background: linear-gradient(to right, rgb(15, 12, 41), rgb(48, 43, 99), rgb(36, 36, 62));",
  "title": "Lawrencium"
}, {
  "desc": "Ohhappiness",
  "css": "background: linear-gradient(to right, rgb(0, 176, 155), rgb(150, 201, 61));",
  "title": "Ohhappiness"
}, {
  "desc": "Delicate",
  "css": "background: linear-gradient(to right, rgb(211, 204, 227), rgb(233, 228, 240));",
  "title": "Delicate"
}, {
  "desc": "Selenium",
  "css": "background: linear-gradient(to right, rgb(60, 59, 63), rgb(96, 92, 60));",
  "title": "Selenium"
}, {
  "desc": "Sulphur",
  "css": "background: linear-gradient(to right, rgb(202, 197, 49), rgb(243, 249, 167));",
  "title": "Sulphur"
}, {
  "desc": "Pink Flavour",
  "css": "background: linear-gradient(to right, rgb(128, 0, 128), rgb(255, 192, 203));",
  "title": "Pink Flavour"
}, {
  "desc": "Rainbow Blue",
  "css": "background: linear-gradient(to right, rgb(0, 242, 96), rgb(5, 117, 230));",
  "title": "Rainbow Blue"
}, {
  "desc": "Orange Fun",
  "css": "background: linear-gradient(to right, rgb(252, 74, 26), rgb(247, 183, 51));",
  "title": "Orange Fun"
}, {
  "desc": "Velvet Sun",
  "css": "background: linear-gradient(to right, rgb(225, 238, 195), rgb(240, 80, 83));",
  "title": "Velvet Sun"
}, {
  "desc": "Digital Water",
  "css": "background: linear-gradient(to right, rgb(116, 235, 213), rgb(172, 182, 229));",
  "title": "Digital Water"
}, {
  "desc": "Lithium",
  "css": "background: linear-gradient(to right, rgb(109, 96, 39), rgb(211, 203, 184));",
  "title": "Lithium"
}, {
  "desc": "Argon",
  "css": "background: linear-gradient(to right, rgb(3, 0, 30), rgb(115, 3, 192), rgb(236, 56, 188), rgb(253, 239, 249));",
  "title": "Argon"
}, {
  "desc": "Hydrogen",
  "css": "background: linear-gradient(to right, rgb(102, 125, 182), rgb(0, 130, 200), rgb(0, 130, 200), rgb(102, 125, 182));",
  "title": "Hydrogen"
}, {
  "desc": "Zinc",
  "css": "background: linear-gradient(to right, rgb(173, 169, 150), rgb(242, 242, 242), rgb(219, 219, 219), rgb(234, 234, 234));",
  "title": "Zinc"
}, {
  "desc": "Velvet Sun",
  "css": "background: linear-gradient(to right, rgb(225, 238, 195), rgb(240, 80, 83));",
  "title": "Velvet Sun"
}, {
  "desc": "King Yna",
  "css": "background: linear-gradient(to right, rgb(26, 42, 108), rgb(178, 31, 31), rgb(253, 187, 45));",
  "title": "King Yna"
}, {
  "desc": "Summer",
  "css": "background: linear-gradient(to right, rgb(34, 193, 195), rgb(253, 187, 45));",
  "title": "Summer"
}, {
  "desc": "Orange Coral",
  "css": "background: linear-gradient(to right, rgb(255, 153, 102), rgb(255, 94, 98));",
  "title": "Orange Coral"
}, {
  "desc": "Purpink",
  "css": "background: linear-gradient(to right, rgb(127, 0, 255), rgb(225, 0, 255));",
  "title": "Purpink"
}, {
  "desc": "Dull",
  "css": "background: linear-gradient(to right, rgb(201, 214, 255), rgb(226, 226, 226));",
  "title": "Dull"
}, {
  "desc": "Kimoby Is The New Blue",
  "css": "background: linear-gradient(to right, rgb(57, 106, 252), rgb(41, 72, 255));",
  "title": "Kimoby Is The New Blue"
}, {
  "desc": "Broken Hearts",
  "css": "background: linear-gradient(to right, rgb(217, 167, 199), rgb(255, 252, 220));",
  "title": "Broken Hearts"
}, {
  "desc": "Clot",
  "css": "background: linear-gradient(to right, rgb(7, 0, 0), rgb(76, 0, 1), rgb(7, 0, 0));",
  "title": "Clot"
}, {
  "desc": "Shift",
  "css": "background: linear-gradient(to right, rgb(0, 0, 0), rgb(229, 0, 141), rgb(255, 7, 11));",
  "title": "Shift"
}, {
  "desc": "Subu",
  "css": "background: linear-gradient(to right, rgb(12, 235, 235), rgb(32, 227, 178), rgb(41, 255, 198));",
  "title": "Subu"
}, {
  "desc": "Socialive",
  "css": "background: linear-gradient(to right, rgb(6, 190, 182), rgb(72, 177, 191));",
  "title": "Socialive"
}, {
  "desc": "Crimson Tide",
  "css": "background: linear-gradient(to right, rgb(100, 43, 115), rgb(198, 66, 110));",
  "title": "Crimson Tide"
}, {
  "desc": "Telegram",
  "css": "background: linear-gradient(to right, rgb(28, 146, 210), rgb(242, 252, 254));",
  "title": "Telegram"
}, {
  "desc": "Terminal",
  "css": "background: linear-gradient(to right, rgb(0, 0, 0), rgb(15, 155, 15));",
  "title": "Terminal"
}, {
  "desc": "Scooter",
  "css": "background: linear-gradient(to right, rgb(54, 209, 220), rgb(91, 134, 229));",
  "title": "Scooter"
}, {
  "desc": "Alive",
  "css": "background: linear-gradient(to right, rgb(203, 53, 107), rgb(189, 63, 50));",
  "title": "Alive"
}, {
  "desc": "Relay",
  "css": "background: linear-gradient(to right, rgb(58, 28, 113), rgb(215, 109, 119), rgb(255, 175, 123));",
  "title": "Relay"
}, {
  "desc": "Meridian",
  "css": "background: linear-gradient(to right, rgb(40, 60, 134), rgb(69, 162, 71));",
  "title": "Meridian"
}, {
  "desc": "Compare Now",
  "css": "background: linear-gradient(to right, rgb(239, 59, 54), rgb(255, 255, 255));",
  "title": "Compare Now"
}, {
  "desc": "Mello",
  "css": "background: linear-gradient(to right, rgb(192, 57, 43), rgb(142, 68, 173));",
  "title": "Mello"
}, {
  "desc": "Crystal Clear",
  "css": "background: linear-gradient(to right, rgb(21, 153, 87), rgb(21, 87, 153));",
  "title": "Crystal Clear"
}, {
  "desc": "Visions of Grandeur",
  "css": "background: linear-gradient(to right, rgb(0, 0, 70), rgb(28, 181, 224));",
  "title": "Visions of Grandeur"
}, {
  "desc": "Chitty Chitty Bang Bang",
  "css": "background: linear-gradient(to right, rgb(0, 121, 145), rgb(120, 255, 214));",
  "title": "Chitty Chitty Bang Bang"
}, {
  "desc": "Blue Skies",
  "css": "background: linear-gradient(to right, rgb(86, 204, 242), rgb(47, 128, 237));",
  "title": "Blue Skies"
}, {
  "desc": "Sunkist",
  "css": "background: linear-gradient(to right, rgb(242, 153, 74), rgb(242, 201, 76));",
  "title": "Sunkist"
}, {
  "desc": "Coal",
  "css": "background: linear-gradient(to right, rgb(235, 87, 87), rgb(0, 0, 0));",
  "title": "Coal"
}, {
  "desc": "Html",
  "css": "background: linear-gradient(to right, rgb(228, 77, 38), rgb(241, 101, 41));",
  "title": "Html"
}, {
  "desc": "Cinnamint",
  "css": "background: linear-gradient(to right, rgb(74, 194, 154), rgb(189, 255, 243));",
  "title": "Cinnamint"
}, {
  "desc": "Maldives",
  "css": "background: linear-gradient(to right, rgb(178, 254, 250), rgb(14, 210, 247));",
  "title": "Maldives"
}, {
  "desc": "Mini",
  "css": "background: linear-gradient(to right, rgb(48, 232, 191), rgb(255, 130, 53));",
  "title": "Mini"
}, {
  "desc": "Sha la la",
  "css": "background: linear-gradient(to right, rgb(214, 109, 117), rgb(226, 149, 135));",
  "title": "Sha la la"
}, {
  "desc": "Purplepine",
  "css": "background: linear-gradient(to right, rgb(32, 0, 44), rgb(203, 180, 212));",
  "title": "Purplepine"
}, {
  "desc": "Celestial",
  "css": "background: linear-gradient(to right, rgb(195, 55, 100), rgb(29, 38, 113));",
  "title": "Celestial"
}, {
  "desc": "Learning and Leading",
  "css": "background: linear-gradient(to right, rgb(247, 151, 30), rgb(255, 210, 0));",
  "title": "Learning and Leading"
}, {
  "desc": "Pacific Dream",
  "css": "background: linear-gradient(to right, rgb(52, 232, 158), rgb(15, 52, 67));",
  "title": "Pacific Dream"
}, {
  "desc": "Venice",
  "css": "background: linear-gradient(to right, rgb(97, 144, 232), rgb(167, 191, 232));",
  "title": "Venice"
}, {
  "desc": "Orca",
  "css": "background: linear-gradient(to right, rgb(68, 160, 141), rgb(9, 54, 55));",
  "title": "Orca"
}, {
  "desc": "Love and Liberty",
  "css": "background: linear-gradient(to right, rgb(32, 1, 34), rgb(111, 0, 0));",
  "title": "Love and Liberty"
}, {
  "desc": "Very Blue",
  "css": "background: linear-gradient(to right, rgb(5, 117, 230), rgb(2, 27, 121));",
  "title": "Very Blue"
}, {
  "desc": "Can You Feel The Love Tonight",
  "css": "background: linear-gradient(to right, rgb(69, 104, 220), rgb(176, 106, 179));",
  "title": "Can You Feel The Love Tonight"
}, {
  "desc": "The Blue Lagoon",
  "css": "background: linear-gradient(to right, rgb(67, 198, 172), rgb(25, 22, 84));",
  "title": "The Blue Lagoon"
}, {
  "desc": "Under the Lake",
  "css": "background: linear-gradient(to right, rgb(9, 48, 40), rgb(35, 122, 87));",
  "title": "Under the Lake"
}, {
  "desc": "Honey Dew",
  "css": "background: linear-gradient(to right, rgb(67, 198, 172), rgb(248, 255, 174));",
  "title": "Honey Dew"
}, {
  "desc": "Roseanna",
  "css": "background: linear-gradient(to right, rgb(255, 175, 189), rgb(255, 195, 160));",
  "title": "Roseanna"
}, {
  "desc": "What lies Beyond",
  "css": "background: linear-gradient(to right, rgb(240, 242, 240), rgb(0, 12, 64));",
  "title": "What lies Beyond"
}, {
  "desc": "Rose Colored Lenses",
  "css": "background: linear-gradient(to right, rgb(232, 203, 192), rgb(99, 111, 164));",
  "title": "Rose Colored Lenses"
}, {
  "desc": "EasyMed",
  "css": "background: linear-gradient(to right, rgb(220, 227, 91), rgb(69, 182, 73));",
  "title": "EasyMed"
}, {
  "desc": "Cocoaa Ice",
  "css": "background: linear-gradient(to right, rgb(192, 192, 170), rgb(28, 239, 255));",
  "title": "Cocoaa Ice"
}, {
  "desc": "Jodhpur",
  "css": "background: linear-gradient(to right, rgb(156, 236, 251), rgb(101, 199, 247), rgb(0, 82, 212));",
  "title": "Jodhpur"
}, {
  "desc": "Jaipur",
  "css": "background: linear-gradient(to right, rgb(219, 230, 246), rgb(197, 121, 109));",
  "title": "Jaipur"
}, {
  "desc": "Vice City",
  "css": "background: linear-gradient(to right, rgb(52, 148, 230), rgb(236, 110, 173));",
  "title": "Vice City"
}, {
  "desc": "Mild",
  "css": "background: linear-gradient(to right, rgb(103, 178, 111), rgb(76, 162, 205));",
  "title": "Mild"
}, {
  "desc": "Dawn",
  "css": "background: linear-gradient(to right, rgb(243, 144, 79), rgb(59, 67, 113));",
  "title": "Dawn"
}, {
  "desc": "Ibiza Sunset",
  "css": "background: linear-gradient(to right, rgb(238, 9, 121), rgb(255, 106, 0));",
  "title": "Ibiza Sunset"
}, {
  "desc": "Radar",
  "css": "background: linear-gradient(to right, rgb(167, 112, 239), rgb(207, 139, 243), rgb(253, 185, 155));",
  "title": "Radar"
}, {
  "desc": "80's Purple",
  "css": "background: linear-gradient(to right, rgb(65, 41, 90), rgb(47, 7, 67));",
  "title": "80's Purple"
}, {
  "desc": "Black Ros\u00e9",
  "css": "background: linear-gradient(to right, rgb(244, 196, 243), rgb(252, 103, 250));",
  "title": "Black Ros\u00e9"
}, {
  "desc": "Brady Brady Fun Fun",
  "css": "background: linear-gradient(to right, rgb(0, 195, 255), rgb(255, 255, 28));",
  "title": "Brady Brady Fun Fun"
}, {
  "desc": "Ed's Sunset Gradient",
  "css": "background: linear-gradient(to right, rgb(255, 126, 95), rgb(254, 180, 123));",
  "title": "Ed's Sunset Gradient"
}, {
  "desc": "Snapchat",
  "css": "background: linear-gradient(to right, rgb(255, 252, 0), rgb(255, 255, 255));",
  "title": "Snapchat"
}, {
  "desc": "Cosmic Fusion",
  "css": "background: linear-gradient(to right, rgb(255, 0, 204), rgb(51, 51, 153));",
  "title": "Cosmic Fusion"
}, {
  "desc": "Nepal",
  "css": "background: linear-gradient(to right, rgb(222, 97, 97), rgb(38, 87, 235));",
  "title": "Nepal"
}, {
  "desc": "Azure Pop",
  "css": "background: linear-gradient(to right, rgb(239, 50, 217), rgb(137, 255, 253));",
  "title": "Azure Pop"
}, {
  "desc": "Love Couple",
  "css": "background: linear-gradient(to right, rgb(58, 97, 134), rgb(137, 37, 62));",
  "title": "Love Couple"
}, {
  "desc": "Disco",
  "css": "background: linear-gradient(to right, rgb(78, 205, 196), rgb(85, 98, 112));",
  "title": "Disco"
}, {
  "desc": "Limeade",
  "css": "background: linear-gradient(to right, rgb(161, 255, 206), rgb(250, 255, 209));",
  "title": "Limeade"
}, {
  "desc": "Dania",
  "css": "background: linear-gradient(to right, rgb(190, 147, 197), rgb(123, 198, 204));",
  "title": "Dania"
}, {
  "desc": "50 Shades of Grey",
  "css": "background: linear-gradient(to right, rgb(189, 195, 199), rgb(44, 62, 80));",
  "title": "50 Shades of Grey"
}, {
  "desc": "Dusk",
  "css": "background: linear-gradient(to right, rgb(255, 216, 155), rgb(25, 84, 123));",
  "title": "Dusk"
}, {
  "desc": "IIIT Delhi",
  "css": "background: linear-gradient(to right, rgb(128, 128, 128), rgb(63, 173, 168));",
  "title": "IIIT Delhi"
}, {
  "desc": "Sun on the Horizon",
  "css": "background: linear-gradient(to right, rgb(252, 234, 187), rgb(248, 181, 0));",
  "title": "Sun on the Horizon"
}, {
  "desc": "Blood Red",
  "css": "background: linear-gradient(to right, rgb(248, 80, 50), rgb(231, 56, 39));",
  "title": "Blood Red"
}, {
  "desc": "Sherbert",
  "css": "background: linear-gradient(to right, rgb(247, 157, 0), rgb(100, 243, 140));",
  "title": "Sherbert"
}, {
  "desc": "Firewatch",
  "css": "background: linear-gradient(to right, rgb(203, 45, 62), rgb(239, 71, 58));",
  "title": "Firewatch"
}, {
  "desc": "Lush",
  "css": "background: linear-gradient(to right, rgb(86, 171, 47), rgb(168, 224, 99));",
  "title": "Lush"
}, {
  "desc": "Frost",
  "css": "background: linear-gradient(to right, rgb(0, 4, 40), rgb(0, 78, 146));",
  "title": "Frost"
}, {
  "desc": "Mauve",
  "css": "background: linear-gradient(to right, rgb(66, 39, 90), rgb(115, 75, 109));",
  "title": "Mauve"
}, {
  "desc": "Royal",
  "css": "background: linear-gradient(to right, rgb(20, 30, 48), rgb(36, 59, 85));",
  "title": "Royal"
}, {
  "desc": "Minimal Red",
  "css": "background: linear-gradient(to right, rgb(240, 0, 0), rgb(220, 40, 30));",
  "title": "Minimal Red"
}, {
  "desc": "Dusk",
  "css": "background: linear-gradient(to right, rgb(44, 62, 80), rgb(253, 116, 108));",
  "title": "Dusk"
}, {
  "desc": "Deep Sea Space",
  "css": "background: linear-gradient(to right, rgb(44, 62, 80), rgb(76, 161, 175));",
  "title": "Deep Sea Space"
}, {
  "desc": "Grapefruit Sunset",
  "css": "background: linear-gradient(to right, rgb(233, 100, 67), rgb(144, 78, 149));",
  "title": "Grapefruit Sunset"
}, {
  "desc": "Sunset",
  "css": "background: linear-gradient(to right, rgb(11, 72, 107), rgb(245, 98, 23));",
  "title": "Sunset"
}, {
  "desc": "Solid Vault",
  "css": "background: linear-gradient(to right, rgb(58, 123, 213), rgb(58, 96, 115));",
  "title": "Solid Vault"
}, {
  "desc": "Bright Vault",
  "css": "background: linear-gradient(to right, rgb(0, 210, 255), rgb(146, 141, 171));",
  "title": "Bright Vault"
}, {
  "desc": "Politics",
  "css": "background: linear-gradient(to right, rgb(33, 150, 243), rgb(244, 67, 54));",
  "title": "Politics"
}, {
  "desc": "Sweet Morning",
  "css": "background: linear-gradient(to right, rgb(255, 95, 109), rgb(255, 195, 113));",
  "title": "Sweet Morning"
}, {
  "desc": "Sylvia",
  "css": "background: linear-gradient(to right, rgb(255, 75, 31), rgb(255, 144, 104));",
  "title": "Sylvia"
}, {
  "desc": "Transfile",
  "css": "background: linear-gradient(to right, rgb(22, 191, 253), rgb(203, 48, 102));",
  "title": "Transfile"
}, {
  "desc": "Tranquil",
  "css": "background: linear-gradient(to right, rgb(238, 205, 163), rgb(239, 98, 159));",
  "title": "Tranquil"
}, {
  "desc": "Red Ocean",
  "css": "background: linear-gradient(to right, rgb(29, 67, 80), rgb(164, 57, 49));",
  "title": "Red Ocean"
}, {
  "desc": "Shahabi",
  "css": "background: linear-gradient(to right, rgb(168, 0, 119), rgb(102, 255, 0));",
  "title": "Shahabi"
}, {
  "desc": "Alihossein",
  "css": "background: linear-gradient(to right, rgb(247, 255, 0), rgb(219, 54, 164));",
  "title": "Alihossein"
}, {
  "desc": "Ali",
  "css": "background: linear-gradient(to right, rgb(255, 75, 31), rgb(31, 221, 255));",
  "title": "Ali"
}, {
  "desc": "Purple White",
  "css": "background: linear-gradient(to right, rgb(186, 83, 112), rgb(244, 226, 216));",
  "title": "Purple White"
}, {
  "desc": "Colors Of Sky",
  "css": "background: linear-gradient(to right, rgb(224, 234, 252), rgb(207, 222, 243));",
  "title": "Colors Of Sky"
}, {
  "desc": "Decent",
  "css": "background: linear-gradient(to right, rgb(76, 161, 175), rgb(196, 224, 229));",
  "title": "Decent"
}, {
  "desc": "Deep Space",
  "css": "background: linear-gradient(to right, rgb(0, 0, 0), rgb(67, 67, 67));",
  "title": "Deep Space"
}, {
  "desc": "Dark Skies",
  "css": "background: linear-gradient(to right, rgb(75, 121, 161), rgb(40, 62, 81));",
  "title": "Dark Skies"
}, {
  "desc": "Suzy",
  "css": "background: linear-gradient(to right, rgb(131, 77, 155), rgb(208, 78, 214));",
  "title": "Suzy"
}, {
  "desc": "Superman",
  "css": "background: linear-gradient(to right, rgb(0, 153, 247), rgb(241, 23, 18));",
  "title": "Superman"
}, {
  "desc": "Nighthawk",
  "css": "background: linear-gradient(to right, rgb(41, 128, 185), rgb(44, 62, 80));",
  "title": "Nighthawk"
}, {
  "desc": "Forest",
  "css": "background: linear-gradient(to right, rgb(90, 63, 55), rgb(44, 119, 68));",
  "title": "Forest"
}, {
  "desc": "Miami Dolphins",
  "css": "background: linear-gradient(to right, rgb(77, 160, 176), rgb(211, 157, 56));",
  "title": "Miami Dolphins"
}, {
  "desc": "Minnesota Vikings",
  "css": "background: linear-gradient(to right, rgb(86, 20, 176), rgb(219, 214, 92));",
  "title": "Minnesota Vikings"
}, {
  "desc": "Christmas",
  "css": "background: linear-gradient(to right, rgb(47, 115, 54), rgb(170, 58, 56));",
  "title": "Christmas"
}, {
  "desc": "Joomla",
  "css": "background: linear-gradient(to right, rgb(30, 60, 114), rgb(42, 82, 152));",
  "title": "Joomla"
}, {
  "desc": "Pizelex",
  "css": "background: linear-gradient(to right, rgb(17, 67, 87), rgb(242, 148, 146));",
  "title": "Pizelex"
}, {
  "desc": "Haikus",
  "css": "background: linear-gradient(to right, rgb(253, 116, 108), rgb(255, 144, 104));",
  "title": "Haikus"
}, {
  "desc": "Pale Wood",
  "css": "background: linear-gradient(to right, rgb(234, 205, 163), rgb(214, 174, 123));",
  "title": "Pale Wood"
}, {
  "desc": "Purplin",
  "css": "background: linear-gradient(to right, rgb(106, 48, 147), rgb(160, 68, 255));",
  "title": "Purplin"
}, {
  "desc": "Inbox",
  "css": "background: linear-gradient(to right, rgb(69, 127, 202), rgb(86, 145, 200));",
  "title": "Inbox"
}, {
  "desc": "Blush",
  "css": "background: linear-gradient(to right, rgb(178, 69, 146), rgb(241, 95, 121));",
  "title": "Blush"
}, {
  "desc": "Back to the Future",
  "css": "background: linear-gradient(to right, rgb(192, 36, 37), rgb(240, 203, 53));",
  "title": "Back to the Future"
}, {
  "desc": "Poncho",
  "css": "background: linear-gradient(to right, rgb(64, 58, 62), rgb(190, 88, 105));",
  "title": "Poncho"
}, {
  "desc": "Green and Blue",
  "css": "background: linear-gradient(to right, rgb(194, 229, 156), rgb(100, 179, 244));",
  "title": "Green and Blue"
}, {
  "desc": "Light Orange",
  "css": "background: linear-gradient(to right, rgb(255, 183, 94), rgb(237, 143, 3));",
  "title": "Light Orange"
}, {
  "desc": "Netflix",
  "css": "background: linear-gradient(to right, rgb(142, 14, 0), rgb(31, 28, 24));",
  "title": "Netflix"
}, {
  "desc": "Little Leaf",
  "css": "background: linear-gradient(to right, rgb(118, 184, 82), rgb(141, 194, 111));",
  "title": "Little Leaf"
}, {
  "desc": "Deep Purple",
  "css": "background: linear-gradient(to right, rgb(103, 58, 183), rgb(81, 45, 168));",
  "title": "Deep Purple"
}, {
  "desc": "Back To Earth",
  "css": "background: linear-gradient(to right, rgb(0, 201, 255), rgb(146, 254, 157));",
  "title": "Back To Earth"
}, {
  "desc": "Master Card",
  "css": "background: linear-gradient(to right, rgb(244, 107, 69), rgb(238, 168, 73));",
  "title": "Master Card"
}, {
  "desc": "Clear Sky",
  "css": "background: linear-gradient(to right, rgb(0, 92, 151), rgb(54, 55, 149));",
  "title": "Clear Sky"
}, {
  "desc": "Passion",
  "css": "background: linear-gradient(to right, rgb(229, 57, 53), rgb(227, 93, 91));",
  "title": "Passion"
}, {
  "desc": "Timber",
  "css": "background: linear-gradient(to right, rgb(252, 0, 255), rgb(0, 219, 222));",
  "title": "Timber"
}, {
  "desc": "Between Night and Day",
  "css": "background: linear-gradient(to right, rgb(44, 62, 80), rgb(52, 152, 219));",
  "title": "Between Night and Day"
}, {
  "desc": "Sage Persuasion",
  "css": "background: linear-gradient(to right, rgb(204, 204, 178), rgb(117, 117, 25));",
  "title": "Sage Persuasion"
}, {
  "desc": "Lizard",
  "css": "background: linear-gradient(to right, rgb(48, 67, 82), rgb(215, 210, 204));",
  "title": "Lizard"
}, {
  "desc": "Piglet",
  "css": "background: linear-gradient(to right, rgb(238, 156, 167), rgb(255, 221, 225));",
  "title": "Piglet"
}, {
  "desc": "Dark Knight",
  "css": "background: linear-gradient(to right, rgb(186, 139, 2), rgb(24, 24, 24));",
  "title": "Dark Knight"
}, {
  "desc": "Curiosity blue",
  "css": "background: linear-gradient(to right, rgb(82, 82, 82), rgb(61, 114, 180));",
  "title": "Curiosity blue"
}, {
  "desc": "Ukraine",
  "css": "background: linear-gradient(to right, rgb(0, 79, 249), rgb(255, 249, 76));",
  "title": "Ukraine"
}, {
  "desc": "Green to dark",
  "css": "background: linear-gradient(to right, rgb(106, 145, 19), rgb(20, 21, 23));",
  "title": "Green to dark"
}, {
  "desc": "Fresh Turboscent",
  "css": "background: linear-gradient(to right, rgb(241, 242, 181), rgb(19, 80, 88));",
  "title": "Fresh Turboscent"
}, {
  "desc": "Koko Caramel",
  "css": "background: linear-gradient(to right, rgb(209, 145, 60), rgb(255, 209, 148));",
  "title": "Koko Caramel"
}, {
  "desc": "Virgin America",
  "css": "background: linear-gradient(to right, rgb(123, 67, 151), rgb(220, 36, 48));",
  "title": "Virgin America"
}, {
  "desc": "Portrait",
  "css": "background: linear-gradient(to right, rgb(142, 158, 171), rgb(238, 242, 243));",
  "title": "Portrait"
}, {
  "desc": "Turquoise flow",
  "css": "background: linear-gradient(to right, rgb(19, 106, 138), rgb(38, 120, 113));",
  "title": "Turquoise flow"
}, {
  "desc": "Vine",
  "css": "background: linear-gradient(to right, rgb(0, 191, 143), rgb(0, 21, 16));",
  "title": "Vine"
}, {
  "desc": "Flickr",
  "css": "background: linear-gradient(to right, rgb(255, 0, 132), rgb(51, 0, 27));",
  "title": "Flickr"
}, {
  "desc": "Instagram",
  "css": "background: linear-gradient(to right, rgb(131, 58, 180), rgb(253, 29, 29), rgb(252, 176, 69));",
  "title": "Instagram"
}, {
  "desc": "Atlas",
  "css": "background: linear-gradient(to right, rgb(254, 172, 94), rgb(199, 121, 208), rgb(75, 192, 200));",
  "title": "Atlas"
}, {
  "desc": "Twitch",
  "css": "background: linear-gradient(to right, rgb(100, 65, 165), rgb(42, 8, 69));",
  "title": "Twitch"
}, {
  "desc": "Pastel Orange at the Sun",
  "css": "background: linear-gradient(to right, rgb(255, 179, 71), rgb(255, 204, 51));",
  "title": "Pastel Orange at the Sun"
}, {
  "desc": "Endless River",
  "css": "background: linear-gradient(to right, rgb(67, 206, 162), rgb(24, 90, 157));",
  "title": "Endless River"
}, {
  "desc": "Predawn",
  "css": "background: linear-gradient(to right, rgb(255, 161, 127), rgb(0, 34, 62));",
  "title": "Predawn"
}, {
  "desc": "Purple Bliss",
  "css": "background: linear-gradient(to right, rgb(54, 0, 51), rgb(11, 135, 147));",
  "title": "Purple Bliss"
}, {
  "desc": "Talking To Mice Elf",
  "css": "background: linear-gradient(to right, rgb(148, 142, 153), rgb(46, 20, 55));",
  "title": "Talking To Mice Elf"
}, {
  "desc": "Hersheys",
  "css": "background: linear-gradient(to right, rgb(30, 19, 12), rgb(154, 132, 120));",
  "title": "Hersheys"
}, {
  "desc": "Crazy Orange I",
  "css": "background: linear-gradient(to right, rgb(211, 131, 18), rgb(168, 50, 121));",
  "title": "Crazy Orange I"
}, {
  "desc": "Between The Clouds",
  "css": "background: linear-gradient(to right, rgb(115, 200, 169), rgb(55, 59, 68));",
  "title": "Between The Clouds"
}, {
  "desc": "Metallic Toad",
  "css": "background: linear-gradient(to right, rgb(171, 186, 171), rgb(255, 255, 255));",
  "title": "Metallic Toad"
}, {
  "desc": "Martini",
  "css": "background: linear-gradient(to right, rgb(253, 252, 71), rgb(36, 254, 65));",
  "title": "Martini"
}, {
  "desc": "Friday",
  "css": "background: linear-gradient(to right, rgb(131, 164, 212), rgb(182, 251, 255));",
  "title": "Friday"
}, {
  "desc": "ServQuick",
  "css": "background: linear-gradient(to right, rgb(72, 85, 99), rgb(41, 50, 60));",
  "title": "ServQuick"
}, {
  "desc": "Behongo",
  "css": "background: linear-gradient(to right, rgb(82, 194, 52), rgb(6, 23, 0));",
  "title": "Behongo"
}, {
  "desc": "SoundCloud",
  "css": "background: linear-gradient(to right, rgb(254, 140, 0), rgb(248, 54, 0));",
  "title": "SoundCloud"
}, {
  "desc": "Facebook Messenger",
  "css": "background: linear-gradient(to right, rgb(0, 198, 255), rgb(0, 114, 255));",
  "title": "Facebook Messenger"
}, {
  "desc": "Shore",
  "css": "background: linear-gradient(to right, rgb(112, 225, 245), rgb(255, 209, 148));",
  "title": "Shore"
}, {
  "desc": "Cheer Up Emo Kid",
  "css": "background: linear-gradient(to right, rgb(85, 98, 112), rgb(255, 107, 107));",
  "title": "Cheer Up Emo Kid"
}, {
  "desc": "Amethyst",
  "css": "background: linear-gradient(to right, rgb(157, 80, 187), rgb(110, 72, 170));",
  "title": "Amethyst"
}, {
  "desc": "Man of Steel",
  "css": "background: linear-gradient(to right, rgb(120, 2, 6), rgb(6, 17, 97));",
  "title": "Man of Steel"
}, {
  "desc": "Neon Life",
  "css": "background: linear-gradient(to right, rgb(179, 255, 171), rgb(18, 255, 247));",
  "title": "Neon Life"
}, {
  "desc": "Teal Love",
  "css": "background: linear-gradient(to right, rgb(170, 255, 169), rgb(17, 255, 189));",
  "title": "Teal Love"
}, {
  "desc": "Red Mist",
  "css": "background: linear-gradient(to right, rgb(0, 0, 0), rgb(231, 76, 60));",
  "title": "Red Mist"
}, {
  "desc": "Starfall",
  "css": "background: linear-gradient(to right, rgb(240, 194, 123), rgb(75, 18, 72));",
  "title": "Starfall"
}, {
  "desc": "Dance To Forget",
  "css": "background: linear-gradient(to right, rgb(255, 78, 80), rgb(249, 212, 35));",
  "title": "Dance To Forget"
}, {
  "desc": "Parklife",
  "css": "background: linear-gradient(to right, rgb(173, 209, 0), rgb(123, 146, 10));",
  "title": "Parklife"
}, {
  "desc": "Cherryblossoms",
  "css": "background: linear-gradient(to right, rgb(251, 211, 233), rgb(187, 55, 125));",
  "title": "Cherryblossoms"
}, {
  "desc": "Shadow Night",
  "css": "background: linear-gradient(to right, rgb(0, 0, 0), rgb(83, 52, 109));",
  "title": "Shadow Night"
}, {
  "desc": "Ash",
  "css": "background: linear-gradient(to right, rgb(96, 108, 136), rgb(63, 76, 107));",
  "title": "Ash"
}, {
  "desc": "Virgin",
  "css": "background: linear-gradient(to right, rgb(201, 255, 191), rgb(255, 175, 189));",
  "title": "Virgin"
}, {
  "desc": "Earthly",
  "css": "background: linear-gradient(to right, rgb(100, 145, 115), rgb(219, 213, 164));",
  "title": "Earthly"
}, {
  "desc": "Dirty Fog",
  "css": "background: linear-gradient(to right, rgb(185, 147, 214), rgb(140, 166, 219));",
  "title": "Dirty Fog"
}, {
  "desc": "The Strain",
  "css": "background: linear-gradient(to right, rgb(135, 0, 0), rgb(25, 10, 5));",
  "title": "The Strain"
}, {
  "desc": "Reef",
  "css": "background: linear-gradient(to right, rgb(0, 210, 255), rgb(58, 123, 213));",
  "title": "Reef"
}, {
  "desc": "Candy",
  "css": "background: linear-gradient(to right, rgb(211, 149, 155), rgb(191, 230, 186));",
  "title": "Candy"
}, {
  "desc": "Autumn",
  "css": "background: linear-gradient(to right, rgb(218, 210, 153), rgb(176, 218, 185));",
  "title": "Autumn"
}, {
  "desc": "Winter",
  "css": "background: linear-gradient(to right, rgb(230, 218, 218), rgb(39, 64, 70));",
  "title": "Winter"
}, {
  "desc": "Forever Lost",
  "css": "background: linear-gradient(to right, rgb(93, 65, 87), rgb(168, 202, 186));",
  "title": "Forever Lost"
}, {
  "desc": "Almost",
  "css": "background: linear-gradient(to right, rgb(221, 214, 243), rgb(250, 172, 168));",
  "title": "Almost"
}, {
  "desc": "Moor",
  "css": "background: linear-gradient(to right, rgb(97, 97, 97), rgb(155, 197, 195));",
  "title": "Moor"
}, {
  "desc": "Aqualicious",
  "css": "background: linear-gradient(to right, rgb(80, 201, 195), rgb(150, 222, 218));",
  "title": "Aqualicious"
}, {
  "desc": "Misty Meadow",
  "css": "background: linear-gradient(to right, rgb(33, 95, 0), rgb(228, 228, 217));",
  "title": "Misty Meadow"
}, {
  "desc": "Kyoto",
  "css": "background: linear-gradient(to right, rgb(194, 21, 0), rgb(255, 197, 0));",
  "title": "Kyoto"
}, {
  "desc": "Sirius Tamed",
  "css": "background: linear-gradient(to right, rgb(239, 239, 187), rgb(212, 211, 221));",
  "title": "Sirius Tamed"
}, {
  "desc": "Jonquil",
  "css": "background: linear-gradient(to right, rgb(255, 238, 238), rgb(221, 239, 187));",
  "title": "Jonquil"
}, {
  "desc": "Petrichor",
  "css": "background: linear-gradient(to right, rgb(102, 102, 0), rgb(153, 153, 102));",
  "title": "Petrichor"
}, {
  "desc": "A Lost Memory",
  "css": "background: linear-gradient(to right, rgb(222, 98, 98), rgb(255, 184, 140));",
  "title": "A Lost Memory"
}, {
  "desc": "Vasily",
  "css": "background: linear-gradient(to right, rgb(233, 211, 98), rgb(51, 51, 51));",
  "title": "Vasily"
}, {
  "desc": "Blurry Beach",
  "css": "background: linear-gradient(to right, rgb(213, 51, 105), rgb(203, 173, 109));",
  "title": "Blurry Beach"
}, {
  "desc": "Namn",
  "css": "background: linear-gradient(to right, rgb(167, 55, 55), rgb(122, 40, 40));",
  "title": "Namn"
}, {
  "desc": "Day Tripper",
  "css": "background: linear-gradient(to right, rgb(248, 87, 166), rgb(255, 88, 88));",
  "title": "Day Tripper"
}, {
  "desc": "Pinot Noir",
  "css": "background: linear-gradient(to right, rgb(75, 108, 183), rgb(24, 40, 72));",
  "title": "Pinot Noir"
}, {
  "desc": "Miaka",
  "css": "background: linear-gradient(to right, rgb(252, 53, 76), rgb(10, 191, 188));",
  "title": "Miaka"
}, {
  "desc": "Army",
  "css": "background: linear-gradient(to right, rgb(65, 77, 11), rgb(114, 122, 23));",
  "title": "Army"
}, {
  "desc": "Shrimpy",
  "css": "background: linear-gradient(to right, rgb(228, 58, 21), rgb(230, 82, 69));",
  "title": "Shrimpy"
}, {
  "desc": "Influenza",
  "css": "background: linear-gradient(to right, rgb(192, 72, 72), rgb(72, 0, 72));",
  "title": "Influenza"
}, {
  "desc": "Calm Darya",
  "css": "background: linear-gradient(to right, rgb(95, 44, 130), rgb(73, 160, 157));",
  "title": "Calm Darya"
}, {
  "desc": "Bourbon",
  "css": "background: linear-gradient(to right, rgb(236, 111, 102), rgb(243, 161, 131));",
  "title": "Bourbon"
}, {
  "desc": "Stellar",
  "css": "background: linear-gradient(to right, rgb(116, 116, 191), rgb(52, 138, 199));",
  "title": "Stellar"
}, {
  "desc": "Clouds",
  "css": "background: linear-gradient(to right, rgb(236, 233, 230), rgb(255, 255, 255));",
  "title": "Clouds"
}, {
  "desc": "Moonrise",
  "css": "background: linear-gradient(to right, rgb(218, 226, 248), rgb(214, 164, 164));",
  "title": "Moonrise"
}, {
  "desc": "Peach",
  "css": "background: linear-gradient(to right, rgb(237, 66, 100), rgb(255, 237, 188));",
  "title": "Peach"
}, {
  "desc": "Dracula",
  "css": "background: linear-gradient(to right, rgb(220, 36, 36), rgb(74, 86, 157));",
  "title": "Dracula"
}, {
  "desc": "Mantle",
  "css": "background: linear-gradient(to right, rgb(36, 198, 220), rgb(81, 74, 157));",
  "title": "Mantle"
}, {
  "desc": "Titanium",
  "css": "background: linear-gradient(to right, rgb(40, 48, 72), rgb(133, 147, 152));",
  "title": "Titanium"
}, {
  "desc": "Opa",
  "css": "background: linear-gradient(to right, rgb(61, 126, 170), rgb(255, 228, 122));",
  "title": "Opa"
}, {
  "desc": "Sea Blizz",
  "css": "background: linear-gradient(to right, rgb(28, 216, 210), rgb(147, 237, 199));",
  "title": "Sea Blizz"
}, {
  "desc": "Midnight City",
  "css": "background: linear-gradient(to right, rgb(35, 37, 38), rgb(65, 67, 69));",
  "title": "Midnight City"
}, {
  "desc": "Mystic",
  "css": "background: linear-gradient(to right, rgb(117, 127, 154), rgb(215, 221, 232));",
  "title": "Mystic"
}, {
  "desc": "Shroom Haze",
  "css": "background: linear-gradient(to right, rgb(92, 37, 141), rgb(67, 137, 162));",
  "title": "Shroom Haze"
}, {
  "desc": "Moss",
  "css": "background: linear-gradient(to right, rgb(19, 78, 94), rgb(113, 178, 128));",
  "title": "Moss"
}, {
  "desc": "Bora Bora",
  "css": "background: linear-gradient(to right, rgb(43, 192, 228), rgb(234, 236, 198));",
  "title": "Bora Bora"
}, {
  "desc": "Venice Blue",
  "css": "background: linear-gradient(to right, rgb(8, 80, 120), rgb(133, 216, 206));",
  "title": "Venice Blue"
}, {
  "desc": "Electric Violet",
  "css": "background: linear-gradient(to right, rgb(71, 118, 230), rgb(142, 84, 233));",
  "title": "Electric Violet"
}, {
  "desc": "Kashmir",
  "css": "background: linear-gradient(to right, rgb(97, 67, 133), rgb(81, 99, 149));",
  "title": "Kashmir"
}, {
  "desc": "Steel Gray",
  "css": "background: linear-gradient(to right, rgb(31, 28, 44), rgb(146, 141, 171));",
  "title": "Steel Gray"
}, {
  "desc": "Mirage",
  "css": "background: linear-gradient(to right, rgb(22, 34, 42), rgb(58, 96, 115));",
  "title": "Mirage"
}, {
  "desc": "Juicy Orange",
  "css": "background: linear-gradient(to right, rgb(255, 128, 8), rgb(255, 200, 55));",
  "title": "Juicy Orange"
}, {
  "desc": "Mojito",
  "css": "background: linear-gradient(to right, rgb(29, 151, 108), rgb(147, 249, 185));",
  "title": "Mojito"
}, {
  "desc": "Cherry",
  "css": "background: linear-gradient(to right, rgb(235, 51, 73), rgb(244, 92, 67));",
  "title": "Cherry"
}, {
  "desc": "Pinky",
  "css": "background: linear-gradient(to right, rgb(221, 94, 137), rgb(247, 187, 151));",
  "title": "Pinky"
}, {
  "desc": "Sea Weed",
  "css": "background: linear-gradient(to right, rgb(76, 184, 196), rgb(60, 211, 173));",
  "title": "Sea Weed"
}, {
  "desc": "Stripe",
  "css": "background: linear-gradient(to right, rgb(31, 162, 255), rgb(18, 216, 250), rgb(166, 255, 203));",
  "title": "Stripe"
}, {
  "desc": "Purple Paradise",
  "css": "background: linear-gradient(to right, rgb(29, 43, 100), rgb(248, 205, 218));",
  "title": "Purple Paradise"
}, {
  "desc": "Sunrise",
  "css": "background: linear-gradient(to right, rgb(255, 81, 47), rgb(240, 152, 25));",
  "title": "Sunrise"
}, {
  "desc": "Aqua Marine",
  "css": "background: linear-gradient(to right, rgb(26, 41, 128), rgb(38, 208, 206));",
  "title": "Aqua Marine"
}, {
  "desc": "Aubergine",
  "css": "background: linear-gradient(to right, rgb(170, 7, 107), rgb(97, 4, 95));",
  "title": "Aubergine"
}, {
  "desc": "Bloody Mary",
  "css": "background: linear-gradient(to right, rgb(255, 81, 47), rgb(221, 36, 118));",
  "title": "Bloody Mary"
}, {
  "desc": "Mango Pulp",
  "css": "background: linear-gradient(to right, rgb(240, 152, 25), rgb(237, 222, 93));",
  "title": "Mango Pulp"
}, {
  "desc": "Frozen",
  "css": "background: linear-gradient(to right, rgb(64, 59, 74), rgb(231, 233, 187));",
  "title": "Frozen"
}, {
  "desc": "Rose Water",
  "css": "background: linear-gradient(to right, rgb(229, 93, 135), rgb(95, 195, 228));",
  "title": "Rose Water"
}, {
  "desc": "Horizon",
  "css": "background: linear-gradient(to right, rgb(0, 57, 115), rgb(229, 229, 190));",
  "title": "Horizon"
}, {
  "desc": "Monte Carlo",
  "css": "background: linear-gradient(to right, rgb(204, 149, 192), rgb(219, 212, 180), rgb(122, 161, 210));",
  "title": "Monte Carlo"
}, {
  "desc": "Lemon Twist",
  "css": "background: linear-gradient(to right, rgb(60, 165, 92), rgb(181, 172, 73));",
  "title": "Lemon Twist"
}, {
  "desc": "Emerald Water",
  "css": "background: linear-gradient(to right, rgb(52, 143, 80), rgb(86, 180, 211));",
  "title": "Emerald Water"
}, {
  "desc": "Intuitive Purple",
  "css": "background: linear-gradient(to right, rgb(218, 34, 255), rgb(151, 51, 238));",
  "title": "Intuitive Purple"
}, {
  "desc": "Green Beach",
  "css": "background: linear-gradient(to right, rgb(2, 170, 176), rgb(0, 205, 172));",
  "title": "Green Beach"
}, {
  "desc": "Sunny Days",
  "css": "background: linear-gradient(to right, rgb(237, 229, 116), rgb(225, 245, 196));",
  "title": "Sunny Days"
}, {
  "desc": "Playing with Reds",
  "css": "background: linear-gradient(to right, rgb(211, 16, 39), rgb(234, 56, 77));",
  "title": "Playing with Reds"
}, {
  "desc": "Harmonic Energy",
  "css": "background: linear-gradient(to right, rgb(22, 160, 133), rgb(244, 208, 63));",
  "title": "Harmonic Energy"
}, {
  "desc": "Cool Brown",
  "css": "background: linear-gradient(to right, rgb(96, 56, 19), rgb(178, 159, 148));",
  "title": "Cool Brown"
}, {
  "desc": "YouTube",
  "css": "background: linear-gradient(to right, rgb(229, 45, 39), rgb(179, 18, 23));",
  "title": "YouTube"
}, {
  "desc": "Noon to Dusk",
  "css": "background: linear-gradient(to right, rgb(255, 110, 127), rgb(191, 233, 255));",
  "title": "Noon to Dusk"
}, {
  "desc": "Hazel",
  "css": "background: linear-gradient(to right, rgb(119, 161, 211), rgb(121, 203, 202), rgb(230, 132, 174));",
  "title": "Hazel"
}, {
  "desc": "Nimvelo",
  "css": "background: linear-gradient(to right, rgb(49, 71, 85), rgb(38, 160, 218));",
  "title": "Nimvelo"
}, {
  "desc": "Sea Blue",
  "css": "background: linear-gradient(to right, rgb(43, 88, 118), rgb(78, 67, 118));",
  "title": "Sea Blue"
}, {
  "desc": "Blooker20",
  "css": "background: linear-gradient(to right, rgb(230, 92, 0), rgb(249, 212, 35));",
  "title": "Blooker20"
}, {
  "desc": "Sexy Blue",
  "css": "background: linear-gradient(to right, rgb(33, 147, 176), rgb(109, 213, 237));",
  "title": "Sexy Blue"
}, {
  "desc": "Purple Love",
  "css": "background: linear-gradient(to right, rgb(204, 43, 94), rgb(117, 58, 136));",
  "title": "Purple Love"
}, {
  "desc": "DIMIGO",
  "css": "background: linear-gradient(to right, rgb(236, 0, 140), rgb(252, 103, 103));",
  "title": "DIMIGO"
}, {
  "desc": "Skyline",
  "css": "background: linear-gradient(to right, rgb(20, 136, 204), rgb(43, 50, 178));",
  "title": "Skyline"
}, {
  "desc": "Sel",
  "css": "background: linear-gradient(to right, rgb(0, 70, 127), rgb(165, 204, 130));",
  "title": "Sel"
}, {
  "desc": "Sky",
  "css": "background: linear-gradient(to right, rgb(7, 101, 133), rgb(255, 255, 255));",
  "title": "Sky"
}, {
  "desc": "Petrol",
  "css": "background: linear-gradient(to right, rgb(187, 210, 197), rgb(83, 105, 118));",
  "title": "Petrol"
}, {
  "desc": "Copper",
  "css": "background: linear-gradient(to right, rgb(183, 152, 145), rgb(148, 113, 107));",
  "title": "Copper"
}, {
  "desc": "Royal Blue + Petrol",
  "css": "background: linear-gradient(to right, rgb(187, 210, 197), rgb(83, 105, 118), rgb(41, 46, 73));",
  "title": "Royal Blue + Petrol"
}, {
  "desc": "Royal Blue",
  "css": "background: linear-gradient(to right, rgb(83, 105, 118), rgb(41, 46, 73));",
  "title": "Royal Blue"
}, {
  "desc": "Windy",
  "css": "background: linear-gradient(to right, rgb(172, 182, 229), rgb(134, 253, 232));",
  "title": "Windy"
}, {
  "desc": "Mango",
  "css": "background: linear-gradient(to right, rgb(255, 226, 89), rgb(255, 167, 81));",
  "title": "Mango"
}, {
  "desc": "Berimbolo",
  "css": "background: linear-gradient(to right, rgb(2, 17, 29), rgb(3, 123, 181), rgb(2, 17, 29));",
  "title": "Berimbolo"
}

]
